ABAFYQ|Streptococcus macedonicus|BT|32|15.6862745098039|73.1875
ABAFYQ|Streptococcus dentapri|BT|12|5.88235294117647|76.6
ABAFYQ|Streptococcus hyointestinalis|BT|11|5.3921568627451|78.4363636363636
ABAFYQ|Streptococcus minor|BT|11|5.3921568627451|76.3727272727273
ABAFYQ|Streptococcus pasteurianus|BT|10|4.90196078431373|75.8
ABAFYQ|Streptococcus saliviloxodontae|BT|10|4.90196078431373|77.93
ABAFYQ|Streptococcus australis|AT|9|4.41176470588235|98.2222222222222
ABAFYQ|Streptococcus urinalis|BT|8|3.92156862745098|78.3625
ABAFYQ|Streptococcus equi|BT|6|2.94117647058824|75.3333333333333
ABAFYQ|Streptococcus gallolyticus|BT|6|2.94117647058824|74.6
ABAFYQ|Streptococcus australis|BT|6|2.94117647058824|79.4666666666667
ABAFYQ|Streptococcus infantis|AT|5|2.45098039215686|99.16
ABAFYQ|Streptococcus sanguinis|BT|4|1.96078431372549|79.475
ABAFYQ|Streptococcus suis|BT|4|1.96078431372549|80.425
ABAFYQ|Streptococcus constellatus|BT|4|1.96078431372549|77.5
ABAFYQ|Streptococcus orisasini|BT|4|1.96078431372549|76.35
ABAFYQ|Streptococcus ferus|BT|4|1.96078431372549|69.45
ABAFYQ|Streptococcus gordonii|AT|4|1.96078431372549|98.5
ABAFYQ|Streptococcus anginosus|BT|4|1.96078431372549|74.325
ABAFYQ|Streptococcus tigurinus|BT|3|1.47058823529412|74.4
ABAFYQ|Streptococcus troglodytidis|BT|3|1.47058823529412|76.3
ABAFYQ|Streptococcus parasanguinis|AT|3|1.47058823529412|98.6666666666667
ABAFYQ|Streptococcus troglodytae|BT|3|1.47058823529412|71.4666666666667
ABAFYQ|Streptococcus ursoris|BT|3|1.47058823529412|75.1666666666667
ABAFYQ|Streptococcus equinus|BT|3|1.47058823529412|73.6666666666667
ABAFYQ|Streptococcus iniae|BT|2|0.980392156862745|83.4
ABAFYQ|Streptococcus sanguinis|AT|2|0.980392156862745|99.5
ABAFYQ|Streptococcus parasanguinis|BT|2|0.980392156862745|72.3
ABAFYQ|Streptococcus agalactiae|BT|2|0.980392156862745|76.95
ABAFYQ|Streptococcus oralis|AT|2|0.980392156862745|98.6
ABAFYQ|Streptococcus dentirousetti|BT|2|0.980392156862745|73.25
ABAFYQ|Streptococcus orisuis|BT|2|0.980392156862745|77.9
ABAFYQ|Streptococcus ictaluri|BT|1|0.490196078431373|81.5
ABAFYQ|Streptococcus pluranimalium|BT|1|0.490196078431373|76.9
ABAFYQ|Streptococcus pneumoniae|BT|1|0.490196078431373|72.2
ABAFYQ|Streptococcus cristatus|AT|1|0.490196078431373|99.4
ABAFYQ|Streptococcus salivarius|AT|1|0.490196078431373|100
ABAFYQ|Streptococcus dentisani|BT|1|0.490196078431373|72.9
ABAFYQ|Streptococcus mitis|AT|1|0.490196078431373|99.8
ABAFYQ|Streptococcus vestibularis|BT|1|0.490196078431373|72.2
ABAFYQ|Streptococcus infantis|BT|1|0.490196078431373|70.7
ABAFYQ|Streptococcus plurextorum|BT|1|0.490196078431373|77.9
ABAFYQ|Streptococcus macacae|BT|1|0.490196078431373|79.4
ABAFYQ|Streptococcus mutans|BT|1|0.490196078431373|69
ABAFYQ|Streptococcus pyogenes|BT|1|0.490196078431373|83.5
ABAFYQ|Streptococcus sobrinus|BT|1|0.490196078431373|76.4
ABAFYQ|Streptococcus uberis|BT|1|0.490196078431373|78.2
ABAFYQ|Streptococcus infantarius|BT|1|0.490196078431373|74.6
ABAFYQ|Streptococcus mutans|AT|1|0.490196078431373|100
ABAFYQ|Streptococcus oralis|BT|1|0.490196078431373|71.9
ABAKYD|Streptococcus macedonicus|BT|6|13.0434782608696|75.6
ABAKYD|Streptococcus constellatus|BT|4|8.69565217391304|78.7
ABAKYD|Streptococcus urinalis|BT|3|6.52173913043478|79.0666666666667
ABAKYD|Streptococcus ursoris|BT|3|6.52173913043478|72.6333333333333
ABAKYD|Streptococcus ferus|BT|3|6.52173913043478|67.3333333333333
ABAKYD|Streptococcus troglodytidis|BT|2|4.34782608695652|77.85
ABAKYD|Streptococcus dentapri|BT|2|4.34782608695652|73.7
ABAKYD|Streptococcus suis|BT|2|4.34782608695652|78.3
ABAKYD|Streptococcus sobrinus|BT|2|4.34782608695652|76
ABAKYD|Streptococcus saliviloxodontae|BT|2|4.34782608695652|77.95
ABAKYD|Streptococcus orisasini|BT|2|4.34782608695652|76.9
ABAKYD|Streptococcus minor|BT|2|4.34782608695652|77.5
ABAKYD|Streptococcus australis|BT|2|4.34782608695652|70.15
ABAKYD|Streptococcus plurextorum|BT|2|4.34782608695652|82.45
ABAKYD|Streptococcus sanguinis|BT|1|2.17391304347826|80.7
ABAKYD|Streptococcus pasteurianus|BT|1|2.17391304347826|71.9
ABAKYD|Streptococcus gallolyticus|BT|1|2.17391304347826|75.5
ABAKYD|Streptococcus infantarius|BT|1|2.17391304347826|75.7
ABAKYD|Streptococcus salivarius|AT|1|2.17391304347826|100
ABAKYD|Streptococcus dentirousetti|BT|1|2.17391304347826|73.1
ABAKYD|Streptococcus mitis|BT|1|2.17391304347826|66.5
ABAKYD|Streptococcus orisuis|BT|1|2.17391304347826|76.9
ABAKYD|Streptococcus infantis|BT|1|2.17391304347826|81.5
